{
	"goToPage-Main": {
		"name": "goToPage-Main",
		"owner": "App",
		"operation": "gotoPage",
		"pageName": "Main",
		"dataBinding": {},
		"category": "wm.NavigationVariable",
		"_id": "wm-wm.NavigationVariable1389180517517"
	},
	"appName": {
		"name": "appName",
		"type": "string",
		"isList": false,
		"owner": "App",
		"dataSet": {
			"dataValue": "eShop"
		},
		"dataBinding": {
			"dataValue": ""
		},
		"saveInPhonegap": false,
		"category": "wm.Variable",
		"_id": "wm-wm.Variable1394628717912"
	},
	"goToPage-Admin": {
		"name": "goToPage-Admin",
		"owner": "App",
		"operation": "gotoPage",
		"pageName": "Admin",
		"dataBinding": {},
		"category": "wm.NavigationVariable",
		"_id": "wm-wm.NavigationVariable1389140514517"
	},
	"goToPage-Category": {
		"name": "goToPage-Category",
		"owner": "App",
		"operation": "gotoPage",
		"pageName": "Category",
		"dataBinding": {},
		"category": "wm.NavigationVariable",
		"_id": "wm-wm.NavigationVariable1394629102518"
	},
	"goToPage-Cart": {
		"name": "goToPage-Cart",
		"owner": "App",
		"operation": "gotoPage",
		"pageName": "Cart",
		"dataBinding": {},
		"category": "wm.NavigationVariable",
		"_id": "wm-wm.NavigationVariable1394629124977"
	},
	"selectedCategory": {
		"name": "selectedCategory",
		"type": "string",
		"isList": false,
		"owner": "App",
		"dataSet": {
			"dataValue": ""
		},
		"dataBinding": {
			"dataValue": ""
		},
		"saveInPhonegap": false,
		"category": "wm.Variable",
		"_id": "wm-wm.Variable1394705098871"
	},
	"productCategories": {
		"name": "productCategories",
		"type": "string",
		"isList": true,
		"owner": "App",
		"dataSet": [
			{
				"dataValue": "Smartphones"
			},
			{
				"dataValue": "Cameras"
			},
			{
				"dataValue": "Laptops"
			},
			{
				"dataValue": "Peripherals"
			},
			{
				"dataValue": "Accessories"
			}
		],
		"dataBinding": {
			"dataValue": ""
		},
		"saveInPhonegap": false,
		"category": "wm.Variable",
		"_id": "wm-wm.Variable1394708188719"
	},
	"goToPage-Products": {
		"name": "goToPage-Products",
		"owner": "App",
		"operation": "gotoPage",
		"pageName": "Products",
		"dataBinding": {},
		"category": "wm.NavigationVariable",
		"_id": "wm-wm.NavigationVariable1394788273156"
	},
	"users": {
		"name": "users",
		"type": "User",
		"isList": false,
		"owner": "App",
		"dataSet": {
			"dataValue": ""
		},
		"dataBinding": {
			"phone": "",
			"street": "",
			"state": "",
			"productBought": "",
			"password": "",
			"itemorders": "",
			"city": "",
			"country": "",
			"id": "",
			"houseNo": "",
			"landmark": "",
			"pin": "",
			"email": "",
			"name": ""
		},
		"saveInPhonegap": false,
		"operation": "read",
		"liveSource": "eshopping",
		"firstRow": 0,
		"maxResults": 20,
		"designMaxResults": 10,
		"ignoreCase": false,
		"matchMode": "start",
		"autoUpdate": true,
		"startUpdate": true,
		"filterFields": {},
		"category": "wm.LiveVariable",
		"_id": "wm-wm.LiveVariable1399292658843",
		"package": "com.eshopping.data.User",
		"propertiesMap": {
			"columns": [
				{
					"propertyName": "PHONE",
					"type": "integer",
					"fullyQualifiedType": "integer",
					"columnName": "phone",
					"isPrimaryKey": false,
					"notNull": "true",
					"length": "null",
					"precision": "null",
					"generator": null,
					"isRelated": false
				},
				{
					"propertyName": "STREET",
					"type": "string",
					"fullyQualifiedType": "string",
					"columnName": "street",
					"isPrimaryKey": false,
					"notNull": "true",
					"length": "null",
					"precision": "null",
					"generator": null,
					"isRelated": false
				},
				{
					"propertyName": "PASSWORD",
					"type": "string",
					"fullyQualifiedType": "string",
					"columnName": "password",
					"isPrimaryKey": false,
					"notNull": "true",
					"length": "null",
					"precision": "null",
					"generator": null,
					"isRelated": false
				},
				{
					"propertyName": "PRODUCT_BOUGHT",
					"type": "string",
					"fullyQualifiedType": "string",
					"columnName": "productBought",
					"isPrimaryKey": false,
					"notNull": "true",
					"length": "null",
					"precision": "null",
					"generator": null,
					"isRelated": false
				},
				{
					"propertyName": "CITY",
					"type": "string",
					"fullyQualifiedType": "string",
					"columnName": "city",
					"isPrimaryKey": false,
					"notNull": "true",
					"length": "null",
					"precision": "null",
					"generator": null,
					"isRelated": false
				},
				{
					"propertyName": "COUNTRY",
					"type": "string",
					"fullyQualifiedType": "string",
					"columnName": "country",
					"isPrimaryKey": false,
					"notNull": "true",
					"length": "null",
					"precision": "null",
					"generator": null,
					"isRelated": false
				},
				{
					"propertyName": "ID",
					"type": "integer",
					"fullyQualifiedType": "integer",
					"columnName": "id",
					"isPrimaryKey": true,
					"notNull": "true",
					"length": "null",
					"precision": "null",
					"generator": "identity",
					"isRelated": false
				},
				{
					"propertyName": "LANDMARK",
					"type": "string",
					"fullyQualifiedType": "string",
					"columnName": "landmark",
					"isPrimaryKey": false,
					"notNull": "true",
					"length": "null",
					"precision": "null",
					"generator": null,
					"isRelated": false
				},
				{
					"propertyName": "EMAIL",
					"type": "string",
					"fullyQualifiedType": "string",
					"columnName": "email",
					"isPrimaryKey": false,
					"notNull": "true",
					"length": "null",
					"precision": "null",
					"generator": null,
					"isRelated": false
				},
				{
					"propertyName": "PIN",
					"type": "string",
					"fullyQualifiedType": "string",
					"columnName": "pin",
					"isPrimaryKey": false,
					"notNull": "true",
					"length": "null",
					"precision": "null",
					"generator": null,
					"isRelated": false
				},
				{
					"propertyName": "NAME",
					"type": "string",
					"fullyQualifiedType": "string",
					"columnName": "name",
					"isPrimaryKey": false,
					"notNull": "true",
					"length": "null",
					"precision": "null",
					"generator": null,
					"isRelated": false
				}
			],
			"entityName": "User",
			"fullyQualifiedName": "com.eshopping.data.User"
		}
	},
	"currentUser": {
		"name": "currentUser",
		"type": "string",
		"isList": false,
		"owner": "App",
		"dataSet": {
			"dataValue": ""
		},
		"dataBinding": {
			"dataValue": ""
		},
		"saveInPhonegap": false,
		"category": "wm.Variable",
		"_id": "wm-wm.Variable1395146739194"
	},
	"currentProduct": {
		"name": "currentProduct",
		"type": "string",
		"isList": false,
		"owner": "App",
		"dataSet": {
			"dataValue": ""
		},
		"dataBinding": {
			"dataValue": ""
		},
		"saveInPhonegap": false,
		"category": "wm.Variable",
		"_id": "wm-wm.Variable1395139132199"
	},
	"cartInsert": {
		"name": "cartInsert",
		"type": "Itemorder",
		"isList": false,
		"owner": "App",
		"dataSet": {
			"dataValue": ""
		},
		"dataBinding": {
			"product": "",
			"id": "",
			"status": "",
			"quantity": "",
			"user": ""
		},
		"saveInPhonegap": false,
		"operation": "insert",
		"liveSource": "eshopping",
		"firstRow": 0,
		"maxResults": 20,
		"designMaxResults": 10,
		"ignoreCase": false,
		"matchMode": "start",
		"autoUpdate": false,
		"startUpdate": false,
		"filterFields": {},
		"inputFields": {},
		"category": "wm.LiveVariable",
		"_id": "wm-wm.LiveVariable1399292658925",
		"package": "com.eshopping.data.Itemorder",
		"properties": [
			"product",
			"user",
			"relationship3"
		],
		"relatedTables": [
			{
				"type": "Product",
				"package": "com.eshopping.data.Product"
			},
			{
				"type": "User",
				"package": "com.eshopping.data.User"
			},
			{
				"type": "User",
				"package": "com.eshopping.data.User"
			}
		],
		"propertiesMap": {
			"columns": [
				{
					"propertyName": "product",
					"type": "Product",
					"fullyQualifiedType": "com.eshopping.data.Product",
					"columnName": "product",
					"relatedTableColumnName": "PRODUCT_ID",
					"isRelated": true,
					"relatedTableName": "Product",
					"columns": [
						{
							"propertyName": "IMG_URL",
							"type": "string",
							"fullyQualifiedType": "string",
							"columnName": "imgUrl",
							"isPrimaryKey": false,
							"notNull": "true",
							"length": "null",
							"precision": "null",
							"generator": null,
							"isRelated": false
						},
						{
							"propertyName": "ID",
							"type": "integer",
							"fullyQualifiedType": "integer",
							"columnName": "id",
							"isPrimaryKey": true,
							"notNull": "true",
							"length": "null",
							"precision": "null",
							"generator": "identity",
							"isRelated": false
						},
						{
							"propertyName": "CATEGORY",
							"type": "string",
							"fullyQualifiedType": "string",
							"columnName": "category",
							"isPrimaryKey": false,
							"notNull": "true",
							"length": "null",
							"precision": "null",
							"generator": null,
							"isRelated": false
						},
						{
							"propertyName": "PRICE",
							"type": "double",
							"fullyQualifiedType": "double",
							"columnName": "price",
							"isPrimaryKey": false,
							"notNull": "true",
							"length": "null",
							"precision": "null",
							"generator": null,
							"isRelated": false
						},
						{
							"propertyName": "DESCRIPTION",
							"type": "string",
							"fullyQualifiedType": "string",
							"columnName": "description",
							"isPrimaryKey": false,
							"notNull": "true",
							"length": "null",
							"precision": "null",
							"generator": null,
							"isRelated": false
						},
						{
							"propertyName": "NAME",
							"type": "string",
							"fullyQualifiedType": "string",
							"columnName": "name",
							"isPrimaryKey": false,
							"notNull": "true",
							"length": "null",
							"precision": "null",
							"generator": null,
							"isRelated": false
						},
						{
							"propertyName": "AVAILABILITY",
							"type": "boolean",
							"fullyQualifiedType": "boolean",
							"columnName": "availability",
							"isPrimaryKey": false,
							"notNull": "true",
							"length": "null",
							"precision": "null",
							"generator": null,
							"isRelated": false
						}
					],
					"isList": false
				},
				{
					"propertyName": "ID",
					"type": "integer",
					"fullyQualifiedType": "integer",
					"columnName": "id",
					"isPrimaryKey": true,
					"notNull": "true",
					"length": "null",
					"precision": "null",
					"generator": "identity",
					"isRelated": false
				},
				{
					"propertyName": "STATUS",
					"type": "string",
					"fullyQualifiedType": "string",
					"columnName": "status",
					"isPrimaryKey": false,
					"notNull": "true",
					"length": "null",
					"precision": "null",
					"generator": null,
					"isRelated": false
				},
				{
					"propertyName": "QUANTITY",
					"type": "integer",
					"fullyQualifiedType": "integer",
					"columnName": "quantity",
					"isPrimaryKey": false,
					"notNull": "true",
					"length": "null",
					"precision": "null",
					"generator": null,
					"isRelated": false
				},
				{
					"propertyName": "user",
					"type": "User",
					"fullyQualifiedType": "com.eshopping.data.User",
					"columnName": "user",
					"relatedTableColumnName": "USER_ID",
					"isRelated": true,
					"relatedTableName": "User",
					"columns": [
						{
							"propertyName": "PHONE",
							"type": "integer",
							"fullyQualifiedType": "integer",
							"columnName": "phone",
							"isPrimaryKey": false,
							"notNull": "true",
							"length": "null",
							"precision": "null",
							"generator": null,
							"isRelated": false
						},
						{
							"propertyName": "STREET",
							"type": "string",
							"fullyQualifiedType": "string",
							"columnName": "street",
							"isPrimaryKey": false,
							"notNull": "true",
							"length": "null",
							"precision": "null",
							"generator": null,
							"isRelated": false
						},
						{
							"propertyName": "PASSWORD",
							"type": "string",
							"fullyQualifiedType": "string",
							"columnName": "password",
							"isPrimaryKey": false,
							"notNull": "true",
							"length": "null",
							"precision": "null",
							"generator": null,
							"isRelated": false
						},
						{
							"propertyName": "PRODUCT_BOUGHT",
							"type": "string",
							"fullyQualifiedType": "string",
							"columnName": "productBought",
							"isPrimaryKey": false,
							"notNull": "true",
							"length": "null",
							"precision": "null",
							"generator": null,
							"isRelated": false
						},
						{
							"propertyName": "CITY",
							"type": "string",
							"fullyQualifiedType": "string",
							"columnName": "city",
							"isPrimaryKey": false,
							"notNull": "true",
							"length": "null",
							"precision": "null",
							"generator": null,
							"isRelated": false
						},
						{
							"propertyName": "COUNTRY",
							"type": "string",
							"fullyQualifiedType": "string",
							"columnName": "country",
							"isPrimaryKey": false,
							"notNull": "true",
							"length": "null",
							"precision": "null",
							"generator": null,
							"isRelated": false
						},
						{
							"propertyName": "ID",
							"type": "integer",
							"fullyQualifiedType": "integer",
							"columnName": "id",
							"isPrimaryKey": true,
							"notNull": "true",
							"length": "null",
							"precision": "null",
							"generator": "identity",
							"isRelated": false
						},
						{
							"propertyName": "LANDMARK",
							"type": "string",
							"fullyQualifiedType": "string",
							"columnName": "landmark",
							"isPrimaryKey": false,
							"notNull": "true",
							"length": "null",
							"precision": "null",
							"generator": null,
							"isRelated": false
						},
						{
							"propertyName": "EMAIL",
							"type": "string",
							"fullyQualifiedType": "string",
							"columnName": "email",
							"isPrimaryKey": false,
							"notNull": "true",
							"length": "null",
							"precision": "null",
							"generator": null,
							"isRelated": false
						},
						{
							"propertyName": "PIN",
							"type": "string",
							"fullyQualifiedType": "string",
							"columnName": "pin",
							"isPrimaryKey": false,
							"notNull": "true",
							"length": "null",
							"precision": "null",
							"generator": null,
							"isRelated": false
						},
						{
							"propertyName": "NAME",
							"type": "string",
							"fullyQualifiedType": "string",
							"columnName": "name",
							"isPrimaryKey": false,
							"notNull": "true",
							"length": "null",
							"precision": "null",
							"generator": null,
							"isRelated": false
						}
					],
					"isList": false
				}
			],
			"entityName": "Itemorder",
			"fullyQualifiedName": "com.eshopping.data.Itemorder"
		}
	},
	"goToPage-Orders": {
		"name": "goToPage-Orders",
		"owner": "App",
		"operation": "gotoPage",
		"pageName": "Orders",
		"dataBinding": {},
		"category": "wm.NavigationVariable",
		"_id": "wm-wm.NavigationVariable1395224514305"
	},
	"goToPage-Profile": {
		"name": "goToPage-Profile",
		"owner": "App",
		"operation": "gotoPage",
		"pageName": "Profile",
		"dataBinding": {},
		"category": "wm.NavigationVariable",
		"_id": "wm-wm.NavigationVariable1395224557034"
	},
	"eshopIcon": {
		"name": "eshopIcon",
		"type": "string",
		"isList": false,
		"owner": "App",
		"dataSet": {
			"dataValue": "resources/images/imagelists/eshopicon1.png"
		},
		"dataBinding": {
			"dataValue": ""
		},
		"saveInPhonegap": false,
		"category": "wm.Variable",
		"_id": "wm-wm.Variable1395231356375"
	},
	"productSearch": {
		"name": "productSearch",
		"type": "Product",
		"isList": false,
		"owner": "App",
		"dataSet": {
			"dataValue": ""
		},
		"dataBinding": {
			"imgUrl": "",
			"id": "",
			"category": "",
			"price": "",
			"description": "",
			"name": "",
			"itemorders": "",
			"availability": ""
		},
		"saveInPhonegap": false,
		"operation": "read",
		"liveSource": "eshopping",
		"firstRow": 0,
		"maxResults": 20,
		"designMaxResults": 10,
		"ignoreCase": false,
		"matchMode": "start",
		"autoUpdate": true,
		"startUpdate": true,
		"onBeforeUpdate": "Javascript",
		"filterFields": {},
		"category": "wm.LiveVariable",
		"_id": "wm-wm.LiveVariable1399292658975",
		"package": "com.eshopping.data.Product",
		"propertiesMap": {
			"columns": [
				{
					"propertyName": "IMG_URL",
					"type": "string",
					"fullyQualifiedType": "string",
					"columnName": "imgUrl",
					"isPrimaryKey": false,
					"notNull": "true",
					"length": "null",
					"precision": "null",
					"generator": null,
					"isRelated": false
				},
				{
					"propertyName": "ID",
					"type": "integer",
					"fullyQualifiedType": "integer",
					"columnName": "id",
					"isPrimaryKey": true,
					"notNull": "true",
					"length": "null",
					"precision": "null",
					"generator": "identity",
					"isRelated": false
				},
				{
					"propertyName": "CATEGORY",
					"type": "string",
					"fullyQualifiedType": "string",
					"columnName": "category",
					"isPrimaryKey": false,
					"notNull": "true",
					"length": "null",
					"precision": "null",
					"generator": null,
					"isRelated": false
				},
				{
					"propertyName": "PRICE",
					"type": "double",
					"fullyQualifiedType": "double",
					"columnName": "price",
					"isPrimaryKey": false,
					"notNull": "true",
					"length": "null",
					"precision": "null",
					"generator": null,
					"isRelated": false
				},
				{
					"propertyName": "DESCRIPTION",
					"type": "string",
					"fullyQualifiedType": "string",
					"columnName": "description",
					"isPrimaryKey": false,
					"notNull": "true",
					"length": "null",
					"precision": "null",
					"generator": null,
					"isRelated": false
				},
				{
					"propertyName": "NAME",
					"type": "string",
					"fullyQualifiedType": "string",
					"columnName": "name",
					"isPrimaryKey": false,
					"notNull": "true",
					"length": "null",
					"precision": "null",
					"generator": null,
					"isRelated": false
				},
				{
					"propertyName": "AVAILABILITY",
					"type": "boolean",
					"fullyQualifiedType": "boolean",
					"columnName": "availability",
					"isPrimaryKey": false,
					"notNull": "true",
					"length": "null",
					"precision": "null",
					"generator": null,
					"isRelated": false
				}
			],
			"entityName": "Product",
			"fullyQualifiedName": "com.eshopping.data.Product"
		}
	},
	"loginVariable": {
		"name": "loginVariable",
		"type": "string",
		"owner": "App",
		"dataSet": {
			"username": "",
			"password": ""
		},
		"dataBinding": {
			"username": "bind:Widgets.usernametext.datavalue",
			"password": "bind:Widgets.passwordtext.datavalue"
		},
		"saveInPhonegap": false,
		"startUpdate": false,
		"autoUpdate": false,
		"onError": "Javascript",
		"useDefaultSuccessHandler": false,
		"category": "wm.LoginVariable",
		"_id": "wm-wm.LoginVariable1399275157442"
	},
	"logoutVariable": {
		"name": "logoutVariable",
		"type": "string",
		"owner": "App",
		"dataBinding": {},
		"saveInPhonegap": false,
		"onSuccess": "Javascript",
		"useDefaultSuccessHandler": false,
		"category": "wm.LogoutVariable",
		"_id": "wm-wm.LogoutVariable1399275157442"
	},
	"loggedInUser": {
		"name": "loggedInUser",
		"type": "string",
		"isList": false,
		"owner": "App",
		"dataSet": {
			"name": "",
			"id": "",
			"tenantId": "",
			"roles": []
		},
		"dataBinding": {
			"dataValue": ""
		},
		"saveInPhonegap": false,
		"category": "wm.Variable",
		"_id": "wm-wm.Variable1399275157442"
	},
    "supportedLocale": {
        "name": "supportedLocale",
        "type": "string",
        "isList": false,
        "owner": "App",
        "dataSet": {
            "en": "English"
        },
        "saveInPhonegap": false,
        "category": "wm.Variable",
        "_id": "wm-wm.Variable1402640443182"
    }
}